<?xml version="1.0" encoding="UTF-8" standalone="no"?>
<!DOCTYPE svg PUBLIC "-//W3C//DTD SVG 1.1//EN" "http://www.w3.org/Graphics/SVG/1.1/DTD/svg11.dtd">
<svg width="100%" height="100%" viewBox="0 0 16000 9000" version="1.1" xmlns="http://www.w3.org/2000/svg" xmlns:xlink="http://www.w3.org/1999/xlink" xml:space="preserve" xmlns:serif="http://www.serif.com/" style="fill-rule:evenodd;clip-rule:evenodd;stroke-linecap:round;stroke-linejoin:round;stroke-miterlimit:1.5;">
    <rect id="Artboard2" x="0" y="0" width="16000" height="9000" style="fill:none;"/>
    <g>
        <g transform="matrix(0.993869,0,0,0.977084,0,0)">
            <rect x="0" y="0" width="16098.7" height="9211.08" style="fill:url(#_Linear1);"/>
        </g>
        <path d="M0,0l16000,0l0,6303.54l-16000,2696.46l0,-9000Z" style="fill:url(#_Linear2);"/>
        <g transform="matrix(1,0,0,1,-9628.36,398.989)">
            <path d="M19160.1,4229.94c151.786,197.278 242.046,444.19 242.046,712.016c-0,645.21 -523.829,1169.04 -1169.04,1169.04c-388.288,0 -732.615,-189.711 -945.257,-481.404c212.471,-60.177 605.623,-286.458 1022.33,-599.501c407.116,-305.836 727.553,-612.479 849.916,-800.149Z" style="fill:#fff;fill-opacity:0.2;stroke:#393939;stroke-opacity:0.2;stroke-width:3px;"/>
        </g>
        <g transform="matrix(1,0,0,1,-5481.03,400.989)">
            <path d="M12002.9,4372.68c-94.452,41.815 -173.197,66.169 -183.202,50.999c-152.318,25.136 -402.904,-98.136 -546.647,-281.594c-249.337,-318.227 -190.592,-776.836 131.103,-1023.49c73.218,-56.138 153.787,-96.488 237.507,-121.575c34.789,-224.288 153.12,-436.34 348.591,-586.212c271.708,-208.323 623.854,-243.902 920.889,-123.74c41.58,-72.262 97.922,-137.753 168.438,-191.818c286.766,-219.869 700.034,-168.067 922.298,115.608c115.975,148.018 180.025,357.311 129.454,501.828l-0.298,0.848c-0,-0 -9.112,45.55 -42.881,113.914l960.844,1226.32c3.466,4.423 5.157,9.961 4.772,15.536c76.19,102.278 -324.038,532.322 -894.388,960.784c-525.221,394.559 -1013.02,651.287 -1148.72,611.304c-7.56,0.847 -15.366,-2.132 -20.397,-8.552l-987.362,-1260.16Z" style="fill:#ededed;fill-opacity:0.15;stroke:#393939;stroke-opacity:0.15;stroke-width:3px;"/>
        </g>
        <g transform="matrix(22.6819,0,0,22.6819,-4158.24,-4092.02)">
            <path d="M619.65,424.822c1.233,-0.68 2.65,-1.068 4.157,-1.068c4.759,0 8.623,3.864 8.623,8.623c0,4.759 -3.864,8.623 -8.623,8.623c-4.759,0 -8.623,-3.864 -8.623,-8.623c0,-0.945 0.153,-1.855 0.435,-2.706c-0.922,-0.56 -1.538,-1.573 -1.538,-2.728c-0,-1.76 1.429,-3.189 3.189,-3.189c0.945,0 1.796,0.413 2.38,1.068Z" style="fill:#fff;fill-opacity:0.2;stroke:#393939;stroke-opacity:0.2;stroke-width:0.13px;"/>
        </g>
        <g transform="matrix(1,0,0,1,-5937.17,400.989)">
            <path d="M15844.9,5493.71c23.789,10.303 50.024,16.015 77.582,16.015c22.345,0 43.82,-3.755 63.836,-10.671l-0,448.07c-0,39.025 -31.684,70.708 -70.709,70.708c-39.025,0 -70.709,-31.683 -70.709,-70.708l-0,-453.414Zm-0,-359.138l-0,-225.443c-12.233,-10.965 -19.936,-26.887 -19.936,-44.595c0,-22.819 12.793,-42.675 31.59,-52.778l-0,-653.367l1.877,0c-80.721,-27.093 -158.009,-100.122 -217.146,-140.608c-48.58,-33.26 -109.729,-95.47 -109.728,-151.106c-0,-144.598 -0,-409.454 -0,-554.052c-0.001,-55.636 49.127,-100.737 109.728,-100.737c146.001,-0 402.647,-0 548.647,-0c60.602,-0 109.729,45.101 109.729,100.737c0,144.598 0,409.454 0,554.052c0,55.636 -61.421,117.513 -109.729,151.106c-58.675,40.803 -135.221,114.662 -215.268,141.24l-0,652.735c18.797,10.103 31.589,29.959 31.589,52.778c0,17.708 -7.702,33.63 -19.935,44.595l-0,220.1c-20.016,-6.916 -41.491,-10.671 -63.836,-10.671c-27.561,-0 -53.798,5.713 -77.582,16.014Zm-53.373,-1688.2c-0,-22.224 -18.043,-40.267 -40.267,-40.267c-22.223,0 -40.266,18.043 -40.266,40.267l-0,390.46c-0,22.224 18.043,40.267 40.266,40.267c22.224,-0 40.267,-18.043 40.267,-40.267l-0,-390.46Zm164.348,-0c0,-22.224 -18.042,-40.267 -40.266,-40.267c-22.224,0 -40.267,18.043 -40.267,40.267l0,390.46c0,22.224 18.043,40.267 40.267,40.267c22.224,-0 40.266,-18.043 40.266,-40.267l0,-390.46Zm164.349,-0c-0,-22.224 -18.043,-40.267 -40.267,-40.267c-22.223,0 -40.266,18.043 -40.266,40.267l-0,390.46c-0,22.224 18.043,40.267 40.266,40.267c22.224,-0 40.267,-18.043 40.267,-40.267l-0,-390.46Z" style="fill:#fff;fill-opacity:0.15;stroke:#393939;stroke-opacity:0.15;stroke-width:3px;"/>
        </g>
    </g>
    <g id="v" transform="matrix(24.6019,0,0,24.6019,-4155.69,-6629.71)">
        <path d="M518.379,505.243c0,0 1.058,3.757 4.621,3.757c3.563,0 5.069,-3.609 5.069,-3.609" style="fill:none;stroke:#393939;stroke-width:0.12px;"/>
    </g>
    <g id="v1" serif:id="v" transform="matrix(-33.3508,-4.08429e-15,4.08429e-15,-33.3508,26633.9,22319.7)">
        <path d="M518.379,505.243c0,0 1.058,3.757 4.621,3.757c3.563,0 5.069,-3.609 5.069,-3.609" style="fill:none;stroke:#393939;stroke-width:0.09px;"/>
    </g>
    <defs>
        <linearGradient id="_Linear1" x1="0" y1="0" x2="1" y2="0.0109993" gradientUnits="userSpaceOnUse" gradientTransform="matrix(-577,-2962,1694.75,-330.138,11732,9563)"><stop offset="0" style="stop-color:#f9b849;stop-opacity:1"/><stop offset="1" style="stop-color:#dc9512;stop-opacity:1"/></linearGradient>
        <linearGradient id="_Linear2" x1="0" y1="0" x2="1" y2="0" gradientUnits="userSpaceOnUse" gradientTransform="matrix(2118,9708,-9708,2118,2244,0)"><stop offset="0" style="stop-color:#a55d00;stop-opacity:1"/><stop offset="0.46" style="stop-color:#e79200;stop-opacity:1"/><stop offset="1" style="stop-color:#f6e152;stop-opacity:1"/></linearGradient>
    </defs>
</svg>
